…
The following objects are masked from ‘package:stats’:

    filter, lag

The following objects are masked from ‘package:base’:

    intersect, setdiff, setequal, union

> x <- seq(as.Date('2016-01-01'), by = 'day', length.out = 366)
> x <- x[sample(1:366, 200)] %>% sort
> x_df <- data_frame(x  = x,
+                    y1 = runif(200, 10, 20) %>% round,
+                    y2 = runif(200, 1, 50) %>% round)
> x_df %>% pad %>% fill_by_function(y1, y2)
# A tibble: 363 × 3
            x    y1    y2
       <date> <dbl> <dbl>
1  2016-01-04 13.00 33.00
2  2016-01-05 12.00 10.00
3  2016-01-06 14.72 26.47
4  2016-01-07 14.72 26.47
5  2016-01-08 15.00 48.00
6  2016-01-09 13.00 45.00
7  2016-01-10 14.72 26.47
8  2016-01-11 14.72 26.47
9  2016-01-12 14.72 26.47
10 2016-01-13 12.00 47.00
# ... with 353 more rows
> x_df %>% pad %>% fill_by_function(y1, y2, fun = median)
# A tibble: 363 × 3
            x    y1    y2
       <date> <dbl> <dbl>
1  2016-01-04    13    33
2  2016-01-05    12    10
3  2016-01-06    14    26
4  2016-01-07    14    26
5  2016-01-08    15    48
6  2016-01-09    13    45
7  2016-01-10    14    26
8  2016-01-11    14    26
9  2016-01-12    14    26
10 2016-01-13    12    47
# ... with 353 more rows
…
The following objects are masked from ‘package:stats’:

    filter, lag

The following objects are masked from ‘package:base’:

    intersect, setdiff, setequal, union

> x <- seq(as.Date('2016-01-01'), by = 'day', length.out = 366)
> x <- x[sample(1:366, 200)] %>% sort
> x_df <- data_frame(x  = x,
+                   y1 = rep(letters[1:3], c(80, 70, 50)) %>% sample,
+                   y2 = rep(letters[2:5], c(60, 80, 40, 20)) %>% sample)
> x_df %>% pad %>% fill_by_prevalent(y1, y2)
# A tibble: 363 × 3
            x    y1    y2
       <date> <chr> <chr>
1  2016-01-04     a     c
2  2016-01-05     a     b
3  2016-01-06     a     c
4  2016-01-07     a     c
5  2016-01-08     b     e
6  2016-01-09     a     d
7  2016-01-10     a     c
8  2016-01-11     a     c
9  2016-01-12     a     c
10 2016-01-13     a     e
# ... with 353 more rows
…
The following objects are masked from ‘package:base’:

    intersect, setdiff, setequal, union

> x <- seq(as.Date('2016-01-01'), by = 'day', length.out = 366)
> x <- x[sample(1:366, 200)] %>% sort
> x_df <- data_frame(x  = x,
+                    y1 = runif(200, 10, 20) %>% round,
+                    y2 = runif(200, 1, 50) %>% round,
+                    y3 = runif(200, 20, 40) %>% round,
+                    y4 = sample(letters[1:5], 200, replace = TRUE))
> x_padded <- x_df %>% pad
> x_padded %>% fill_by_value(y1)
# A tibble: 363 × 5
            x    y1    y2    y3    y4
       <date> <dbl> <dbl> <dbl> <chr>
1  2016-01-04    13    33    36     e
2  2016-01-05    12    10    39     a
3  2016-01-06     0    NA    NA  <NA>
4  2016-01-07     0    NA    NA  <NA>
5  2016-01-08    15    48    23     e
6  2016-01-09    13    45    35     d
7  2016-01-10     0    NA    NA  <NA>
8  2016-01-11     0    NA    NA  <NA>
9  2016-01-12     0    NA    NA  <NA>
10 2016-01-13    12    47    40     b
# ... with 353 more rows
> x_df %>% pad %>% fill_by_value(y1, y2, value = 42)
# A tibble: 363 × 5
            x    y1    y2    y3    y4
       <date> <dbl> <dbl> <dbl> <chr>
1  2016-01-04    13    33    36     e
2  2016-01-05    12    10    39     a
3  2016-01-06    42    42    NA  <NA>
4  2016-01-07    42    42    NA  <NA>
5  2016-01-08    15    48    23     e
6  2016-01-09    13    45    35     d
7  2016-01-10    42    42    NA  <NA>
8  2016-01-11    42    42    NA  <NA>
9  2016-01-12    42    42    NA  <NA>
10 2016-01-13    12    47    40     b
# ... with 353 more rows
…
10 2017-01-01 19
11 2017-02-01  0
12 2017-03-01  0
13 2017-04-01 19
> 
> # padding a data.frame on group level
> day_var <- seq(as.Date('2016-01-01'), length.out = 12, by = 'month')
> x_df_grp <- data.frame(grp  = rep(LETTERS[1:3], each =4),
+                        y    = runif(12, 10, 20) %>% round(0),
+                        date = sample(day_var, 12, TRUE)) %>%
+  arrange(grp, date)
> 
> x_df_grp %>% group_by(grp) %>% do(pad(.)) %>% ungroup %>%
+ tidyr::fill(grp)
# A tibble: 23 × 3
         date    grp     y
       <date> <fctr> <dbl>
1  2016-03-01      A    11
2  2016-04-01      A    NA
3  2016-05-01      A    NA
4  2016-06-01      A    NA
5  2016-07-01      A    NA
6  2016-08-01      A    12
7  2016-09-01      A    NA
8  2016-10-01      A    17
9  2016-11-01      A    NA
10 2016-12-01      A    16
# ... with 13 more rows
…
The following objects are masked from ‘package:base’:

    intersect, setdiff, setequal, union

> x_df <- data.frame(
+   x = seq(lubridate::ymd(20130101), by = 'day', length.out = 1000) %>%
+     sample(500),
+   y = runif(500, 10, 50) %>% round) %>%
+   arrange(x)
> 
> # get the max per month
> x_df %>% thicken('month') %>% group_by(x_month) %>%
+   summarise(y_max = max(y))
# A tibble: 33 × 2
      x_month y_max
       <date> <dbl>
1  2013-01-01    50
2  2013-02-01    47
3  2013-03-01    46
4  2013-04-01    43
5  2013-05-01    41
6  2013-06-01    47
7  2013-07-01    49
8  2013-08-01    48
9  2013-09-01    50
10 2013-10-01    48
# ... with 23 more rows
> 
> # get the average per week, but you want your week to start on Mondays
> # instead of Sundays
> min_x <- x_df$x %>% min
> weekdays(min_x)
[1] "Tuesday"
> x_df %>% thicken(start_val = min_x - 1) %>%
+   group_by(x_week) %>% summarise(y_avg = mean(y))
# A tibble: 142 × 2
       x_week    y_avg
       <date>    <dbl>
1  2012-12-31 19.00000
2  2013-01-07 19.50000
3  2013-01-14 42.00000
4  2013-01-21 38.00000
5  2013-01-28 24.33333
6  2013-02-04 40.33333
7  2013-02-11 34.00000
8  2013-02-18 31.00000
9  2013-02-25 39.00000
10 2013-03-04 40.33333
# ... with 132 more rows
…
