Make a period character vector — format_interval • padr
…
# adding a character to indicate the hours of the interval.
plot_set %>%
  mutate(h_int = format_interval(h, "%H", sep = "-"))
#> # A tibble: 30 x 3
#>    h                       n h_int
#>    <dttm>              <int> <chr>
#>  1 2015-12-10 17:00:00    22 17-18
#>  2 2015-12-10 18:00:00    28 18-19
#>  3 2015-12-10 19:00:00    22 19-20
#>  4 2015-12-10 20:00:00    15 20-21
#>  5 2015-12-10 21:00:00     9 21-22
#>  6 2015-12-10 22:00:00    12 22-23
#>  7 2015-12-10 23:00:00     7 23-00
#>  8 2015-12-11 00:00:00     4 00-01
#>  9 2015-12-11 01:00:00     5 01-02
#> 10 2015-12-11 02:00:00     4 02-03
#> # … with 20 more rows
…
