Add a variable of a higher interval to a data frame — thicken • padr
…
library(dplyr)
x_df <- data.frame(
  x = seq(lubridate::ymd(20130101), by = 'day', length.out = 1000) %>%
    sample(500),
  y = runif(500, 10, 50) %>% round) %>%
  arrange(x)

# get the max per month
x_df %>% thicken('month') %>% group_by(x_month) %>%
  summarise(y_max = max(y))
#> # A tibble: 33 x 2
#>    x_month    y_max
#>    <date>     <dbl>
#>  1 2013-01-01    36
#>  2 2013-02-01    50
#>  3 2013-03-01    49
#>  4 2013-04-01    48
#>  5 2013-05-01    48
#>  6 2013-06-01    48
#>  7 2013-07-01    50
#>  8 2013-08-01    44
#>  9 2013-09-01    47
#> 10 2013-10-01    44
#> # … with 23 more rows

# get the average per week, but you want your week to start on Mondays
# instead of Sundays
x_df %>% thicken('week',
                 start_val = closest_weekday(x_df$x, 2)) %>%
  group_by(x_week) %>% summarise(y_avg = mean(y))
#> # A tibble: 142 x 2
#>    x_week     y_avg
#>    <date>     <dbl>
#>  1 2013-01-08  20  
#>  2 2013-01-15  18.8
#>  3 2013-01-22  11  
#>  4 2013-01-29  35.2
#>  5 2013-02-05  36.8
#>  6 2013-02-12  30.7
#>  7 2013-02-19  33.5
#>  8 2013-02-26  28  
#>  9 2013-03-05  45  
#> 10 2013-03-12  37.5
#> # … with 132 more rows
…
